%YAML 1.1
%TAG !u! tag:unity3d.com,2011:
--- !u!114 &11400000
MonoBehaviour:
  m_ObjectHideFlags: 0
  m_CorrespondingSourceObject: {fileID: 0}
  m_PrefabInstance: {fileID: 0}
  m_PrefabAsset: {fileID: 0}
  m_GameObject: {fileID: 0}
  m_Enabled: 1
  m_EditorHideFlags: 0
  m_Script: {fileID: 11500000, guid: 4ccaf92d87d16494fb4057cff85c3d74, type: 3}
  m_Name: Mesita-de-luz-1
  m_EditorClassIdentifier: 
  nombre: Bedside Table
  imagen: {fileID: 21300000, guid: 41caea1299742454c81162d9b06e27fa, type: 3}
  descripcion: ' '
  modelo3D: {fileID: 2088715501076607407, guid: 0cdda0942bd204df28a97e71b6cdcdd3, type: 3}
