%YAML 1.1
%TAG !u! tag:unity3d.com,2011:
--- !u!1045 &1
EditorBuildSettings:
  m_ObjectHideFlags: 0
  serializedVersion: 2
  m_Scenes:
  - enabled: 1
    path: Assets/Scenes/EscenaPrincipal.unity
    guid: 9fc0d4010bbf28b4594072e72b8655ab
  m_configObjects:
    UnityEditor.XR.ARKit.ARKitSettings: {fileID: 11400000, guid: 11c7e1797f0614e5385b868f5684cd1d, type: 2}
    com.unity.xr.arfoundation.simulation_settings: {fileID: 11400000, guid: 3a6a4be36ff404c299406ce442581085, type: 2}
    com.unity.xr.management.loader_settings: {fileID: 11400000, guid: ca11974ea7fc04c5ca3d01d35d9fbfb0, type: 2}
